%module coremidicffi

%include <headers.c>

/* %include </Applications/Xcode.app/Contents/Developer/Platforms/MacOSX.platform/Developer/SDKs/MacOSX.sdk/System/Library/Frameworks/CoreMIDI.framework/Versions/Current/Headers/MIDIServices.h> *\/ */
/* %include </Applications/Xcode.app/Contents/Developer/Platforms/MacOSX.platform/Developer/SDKs/MacOSX.sdk/System/Library/Frameworks/CoreMIDI.framework/Versions/Current/Headers/MIDISetup.h> *\/ */
/* %include </Applications/Xcode.app/Contents/Developer/Platforms/MacOSX.platform/Developer/SDKs/MacOSX.sdk/System/Library/Frameworks/CoreMIDI.framework/Versions/Current/Headers/MIDIThruConnection.h> *\/ */
/* %include </Applications/Xcode.app/Contents/Developer/Platforms/MacOSX.platform/Developer/SDKs/MacOSX.sdk/System/Library/Frameworks/CoreMIDI.framework/Versions/Current/Headers/MIDIDriver.h> *\/ */
